2019-05-18 13:12:39,643 - INFO: Connected (version 2.0, client OpenSSH_7.4p1)
2019-05-18 13:12:40,494 - INFO: Authentication (publickey) failed.
2019-05-18 13:12:40,723 - INFO: Authentication (password) successful!
2019-05-18 13:12:41,047 - INFO: Opening connection to rhg4 on port 9004
2019-05-18 13:12:41,051 - INFO: Opening connection to rhg4 on port 9004: Trying 39.97.183.153
2019-05-18 13:12:41,156 - INFO: Opening connection to rhg4 on port 9004: Done
2019-05-18 13:12:41,397 - INFO: status1: 1 msg1: All is ok.
2019-05-18 13:12:41,397 - INFO: status2: 1 msg2: flag{web_4}
2019-05-18 13:12:41,398 - INFO: status3: 1 msg3: UID        PID  PPID  C STIME TTY          TIME CMD
root         1     0  0 03:58 pts/0    00:00:00 tini -- /root/run/start.sh
root        10     1  0 03:58 pts/0    00:00:00 /bin/bash /root/run/start.sh
root        29     1  0 03:58 ?        00:00:00 /usr/sbin/sshd
root        31    10  0 03:58 pts/0    00:00:00 tini -- /run.sh
zookeep+    69    31  0 03:58 pts/0    00:00:00 tail -f /opt/bitnami/zookeeper/logs/zookeeper.out
zookeep+    85     1  0 03:58 pts/0    00:00:02 java -Dzookeeper.log.dir=/opt/bitnami/zookeeper/logs -Dzookeeper.root.logger=INFO,CONSOLE -cp /opt/bitnami/zookeeper/bin/../zookeeper-server/target/classes:/opt/bitnami/zookeeper/bin/../build/classes:/opt/bitnami/zookeeper/bin/../zookeeper-server/target/lib/*.jar:/opt/bitnami/zookeeper/bin/../build/lib/*.jar:/opt/bitnami/zookeeper/bin/../lib/slf4j-log4j12-1.7.25.jar:/opt/bitnami/zookeeper/bin/../lib/slf4j-api-1.7.25.jar:/opt/bitnami/zookeeper/bin/../lib/netty-3.10.6.Final.jar:/opt/bitnami/zookeeper/bin/../lib/log4j-1.2.17.jar:/opt/bitnami/zookeeper/bin/../lib/jline-0.9.94.jar:/opt/bitnami/zookeeper/bin/../lib/audience-annotations-0.5.0.jar:/opt/bitnami/zookeeper/bin/../zookeeper-3.4.14.jar:/opt/bitnami/zookeeper/bin/../zookeeper-server/src/main/resources/lib/*.jar:/opt/bitnami/zookeeper/bin/../conf: -Xmx1024m -Xms1024m -Dcom.sun.management.jmxremote -Dcom.sun.management.jmxremote.local.only=false org.apache.zookeeper.server.quorum.QuorumPeerMain /opt/bitnami/zookeeper/bin/../conf/zoo.cfg
root       143    10  0 03:58 pts/0    00:00:00 tail -f /dev/null
root       165    29  0 05:12 ?        00:00:00 sshd: root@notty
root       171   165  0 05:12 ?        00:00:00 ps -ef
2019-05-18 13:12:41,398 - INFO: status4: 1 msg4: flag{server_4}
2019-05-18 13:12:41,399 - INFO: Closed connection to rhg4 port 9004
