2019-05-18 17:31:36,109 - INFO: Connected (version 2.0, client OpenSSH_7.4p1)
2019-05-18 17:31:36,807 - INFO: Authentication (publickey) failed.
2019-05-18 17:31:37,018 - INFO: Authentication (password) successful!
2019-05-18 17:31:43,637 - INFO: status1: 1 msg1: All is ok.
2019-05-18 17:31:43,637 - INFO: status2: 1 msg2: flag{web_10}
2019-05-18 17:31:43,637 - INFO: status3: 1 msg3: UID        PID  PPID  C STIME TTY          TIME CMD
root         1     0  0 May17 pts/0    00:00:00 /bin/bash /root/run/start.sh
root        26     1  0 May17 ?        00:00:00 /usr/sbin/sshd
root        45     1  0 May17 pts/0    00:01:08 java -Djava.security.egd=file:/dev/./urandom -jar /spring-data-web-example-2.0.0.RELEASE.jar
root      1120    26  1 09:31 ?        00:00:00 sshd: root@notty
root      1126  1120  0 09:31 ?        00:00:00 ps -ef
status_code:200
2019-05-18 17:31:43,637 - INFO: status4: 1 msg4: flag{server_10}
