2019-05-05 14:06:27,278 - INFO: Connected (version 2.0, client OpenSSH_6.6.1p1)
2019-05-05 14:06:27,305 - INFO: Authentication (publickey) failed.
2019-05-05 14:06:27,317 - INFO: Authentication (password) successful!
2019-05-05 14:06:27,350 - INFO: status1: 1 msg1: All is ok.
2019-05-05 14:06:27,350 - INFO: status2: 0 msg2: Some Err.
2019-05-05 14:06:27,350 - INFO: status3: 0 msg3: 
status_code:200
2019-05-05 14:06:27,350 - INFO: status4: 0 msg4: invalid literal for int() with base 10: ''
